933414 953518 507
271208 173224 443
520200 587776 452
394408 967128 525
144434 608366 470
930580 335024 525
814428 389911 509
805807 643967 504
160835 112745 383
970515 818053 525
992658 740003 525
159758 444520 449
867627 384969 525
468933 67355 449
24501 824200 509
753158 833268 468
10372 996710 525
165729 973843 525
298036 836795 509
588502 934872 525
510243 995635 525
927351 206810 525
995355 220702 525
308534 678102 509
24423 260224 443
925624 809179 525
576585 274185 470
735181 299125 509
579416 768915 509
509869 43346 449
183295 425870 449
196005 849752 525
738784 451444 509
618912 966221 525
171045 870470 525
37282 773848 509
528445 617259 452
105771 351167 443
487393 109889 449
46744 815032 509
868723 442957 525
901260 25721 525
302831 295064 371
609502 406364 470
59832 396962 443
215753 400504 443
158180 256206 443
328198 134766 443
849135 399781 525
219077 638097 509
457471 963999 525
669565 563689 509
88765 29183 351
628183 5316 509
481049 930555 525
874172 142213 525
206198 821491 509
622603 152679 470
665080 757606 504
331917 224770 443
299435 183809 443
283809 649575 509
249653 72698 443
913785 245568 525
229188 187188 386
640641 248426 509
861085 12601 525
28731 223950 386
321446 653925 509
488805 253262 449
909100 633837 525
220636 581746 470
752664 970377 525
195745 792697 509
946964 816012 525
489809 151201 449
100159 940226 525
390931 4290 443
806418 161597 509
768832 789314 437
572054 342169 470
674713 811038 504
814483 764815 468
227831 43282 386
370202 478974 449
502388 581016 470
142679 756507 509
780306 199418 509
734272 342684 509
691095 891394 525
739493 98660 509
28277 639057 509
492765 574280 470
63047 404291 443
169972 307656 443
564031 740901 509
337498 489699 449
804813 786156 468
129479 531988 470
394171 478277 449
601753 698076 509
647593 927919 525
54296 252250 443
436554 820622 509
80032 616948 470
555167 248030 470
441296 277903 449
74564 436635 449
111280 184615 383
381191 493316 449
815446 789731 468
556251 936638 525
64090 29003 340
489853 522823 470
517852 107288 470
217322 218663 324
742398 695980 504
321759 936932 525
793086 761926 468
6937 105202 351
947007 430224 525
74087 10991 340
262717 227089 443
287548 734822 509
957689 148077 525
657938 391698 509
458783 535914 470
253344 579614 470
279941 682450 509
955165 496102 525
553927 467907 470
77729 224871 386
678969 835959 504
371745 285009 441
764976 86943 509
552413 550006 377
467993 202235 449
115330 729863 509
783177 699693 504
647 229250 386
628527 224419 509
392779 544126 470
539489 814501 509
645314 815533 504
23754 527537 470
121265 103744 354
268356 566312 470
182903 208744 373
620829 386735 470
407435 557722 470
375209 205515 443
245574 94199 443
998770 852678 507
982034 918338 507
57193 245629 443
794285 130975 509
743774 83464 509
988455 115912 525
360873 30910 443
766061 284600 509
725548 438287 509
127300 598005 470
865333 652884 525
220398 762959 509
736963 747622 424
486627 176375 449
447283 705172 509
90168 443937 449
281016 624273 470
780522 130358 509
553947 981 470
291780 280611 389
215713 223948 386
895268 184282 525
250256 458064 449
126055 567187 470
296 49173 324
624039 227770 470
565026 620364 447
473459 575547 470
798174 758844 468
35501 79335 351
103750 259060 443
907246 317277 525
329435 990949 525
942126 247355 525
880995 992851 507
721168 609210 509
664818 403135 509
253706 59002 443
331053 464825 449
390742 448360 449
476385 453336 444
299927 700086 509
973757 560223 525
513520 272352 470
169916 574450 470
289370 58942 443
973097 407386 525
593961 585828 403
554446 499501 470
834364 177988 509
133437 333671 443
29369 705192 509
91279 899670 525
67551 762778 509
113292 752792 509
491182 623577 470
970980 862519 507
92065 603915 470
508359 808934 509
180935 74557 383
37614 186039 383
690915 942066 525
881558 917033 476
134479 853335 525
48253 492484 449
993003 472103 525
730038 842587 525
21666 352720 443
