643016 828635
530728 688892
20884 587844
856564 671965
27422 308865
185313 605552
728170 34054
757445 740511
910499 656297
193515 128129
407047 791064
894150 735891
22405 111012
388832 578097
160693 767444
761011 342703
841256 311433
488923 801465
789654 600333
522340 459653
74712 814959
412350 167173
517764 587155
584152 738040
332073 612014
672659 340378
32485 746578
928512 173965
776610 932773
556527 715049
651821 428720
663088 302802
259620 937427
148261 666762
818242 146565
341188 924591
169287 40673
538718 628544
823855 433661
519269 485911
730966 438969
596738 690012
386893 441742
144071 818893
909797 608668
629482 102367
810643 245648
312470 994543
945850 469811
65894 378009
450188 999704
944582 937359
274019 949103
939926 349888
679971 809617
843867 752746
30164 402514
784371 58657
460630 776822
15470 959267
311572 374663
390534 991969
392803 281714
738529 800496
494455 369251
841377 766464
996122 582199
731694 667356
100539 722141
447231 290704
229159 99919
982076 747508
75181 901862
831934 600613
893455 935487
631884 721182
225977 636669
521427 495532
126044 763349
326647 758156
58889 665098
975923 704246
142973 610059
846695 627222
510979 300501
87229 81801
38136 559236
417481 170635
668336 115527
778966 149619
904332 532420
150331 159938
962535 679681
180420 923515
784068 994538
197119 402165
365183 701326
416857 974002
736097 249599
493650 860655
405629 354850
808823 847627
313499 927196
456280 252519
572044 46173
865145 711084
312193 82906
414183 268155
131770 906900
978426 221428
205469 235897
272724 96484
787593 715199
247076 731100
334406 969171
515293 162924
468022 844142
216275 751372
11524 204904
560757 623976
630793 791101
853759 636112
477874 318167
272092 169058
118026 228029
663688 984356
876927 747649
996219 707331
200291 771852
577930 83230
541190 447783
263038 749317
48793 438239
786492 565504
962290 251074
326175 35678
98740 597108
555623 186061
332793 524561
749945 654117
997011 631680
840320 58134
782333 480151
617549 574839
792276 651311
738080 334290
505345 460508
379124 169579
948394 412156
460382 782832
687177 16571
920908 18773
756522 7067
422615 378579
285468 56529
295944 450074
852236 546574
346682 549436
970172 442665
400917 639527
365395 668521
592003 363387
34503 36544
585108 848154
957071 744876
760237 131886
588755 901337
757671 541180
635366 667557
454402 886194
403072 736358
199146 687369
496042 984200
782208 938354
50825 248246
309234 105193
730042 658425
454154 946662
476410 291071
328351 764380
840623 437221
846674 637541
60649 65415
514276 30919
143597 347900
805285 360474
522575 25750
618282 620756
369899 574444
405754 408071
883735 157804
189792 235563
520157 323039
907576 279036
346466 264190
9115 601675
122052 798373
921421 167369
810932 299253
889972 448954
710011 135130
330224 979405
409388 521914
497178 571974
583062 574396
58857 487539
19125 582612
444495 969335
356888 466523
564014 386029
827291 227014
81824 174964
444592 146914
564210 812802
943025 179650
366386 962355
645743 561463
322484 151442
451071 950516
795525 652196
134373 615791
523521 718240
462499 81345
395050 431079
337166 681919
653538 816605
916538 413025
827496 480979
992007 429397
280612 37822
247690 298161
792895 285904
723158 659447
54159 54286
333415 215303
136157 704844
109968 598182
530413 64054
930760 913227
582282 546748
944510 662476
686317 18505
28980 970868
142468 979280
813640 763183
254845 938498
876197 415650
412152 309948
540960 335271
945867 874173
45096 309089
603417 400527
900983 754007
54090 449794
834241 131698
322456 186223
285767 368471
660411 268277
230780 460275
354847 376380
390014 516311
752244 544041
883593 49091
169954 701218
235274 582869
478098 876956
188010 50720
984718 926622
501718 623274
875725 137129
577658 260609
371875 387524
791202 557755
482908 723973
584647 205097
723885 315693
83044 948070
881175 295919
776984 244278
600034 81201
380702 376068
144220 208700
300556 983149
656136 99204
850072 370472
539817 138924
243844 292559
598639 578619
430409 572600
54936 300598
719058 650519
679982 167640
543523 998350
280834 881559
325718 374440
607478 466933
686664 920790
603697 769096
825683 259453
105999 755102
